A Day With R
…
> # filter data for Jan
> head(flights)
# A tibble: 6 x 19
   year month   day dep_time sched_dep_time dep_delay arr_time sched_arr_time arr_delay carrier flight tailnum origin dest  air_time distance  hour minute
  <int> <int> <int>    <int>          <int>     <dbl>    <int>          <int>     <dbl> <chr>    <int> <chr>   <chr>  <chr>    <dbl>    <dbl> <dbl>  <dbl>
1  2013     1     1      517            515      2.00      830            819      11.0 UA        1545 N14228  EWR    IAH        227     1400  5.00   15.0  
2  2013     1     1      533            529      4.00      850            830      20.0 UA        1714 N24211  LGA    IAH        227     1416  5.00   29.0  
3  2013     1     1      542            540      2.00      923            850      33.0 AA        1141 N619AA  JFK    MIA        160     1089  5.00   40.0  
4  2013     1     1      544            545     -1.00     1004           1022     -18.0 B6         725 N804JB  JFK    BQN        183     1576  5.00   45.0  
5  2013     1     1      554            600     -6.00      812            837     -25.0 DL         461 N668DN  LGA    ATL        116      762  6.00    0  
6  2013     1     1      554            558     -4.00      740            728      12.0 UA        1696 N39463  EWR    ORD        150      719  5.00   58.0  
# ... with 1 more variable: time_hour <dttm>
> flights %>% filter(month==1)
# A tibble: 27,004 x 19
    year month   day dep_time sched_dep_time dep_delay arr_time sched_arr_time arr_delay carrier flight tailnum origin dest  air_time distance  hour minute
   <int> <int> <int>    <int>          <int>     <dbl>    <int>          <int>     <dbl> <chr>    <int> <chr>   <chr>  <chr>    <dbl>    <dbl> <dbl>  <dbl>
 1  2013     1     1      517            515      2.00      830            819     11.0  UA        1545 N14228  EWR    IAH      227       1400  5.00   15.0
 2  2013     1     1      533            529      4.00      850            830     20.0  UA        1714 N24211  LGA    IAH      227       1416  5.00   29.0
 3  2013     1     1      542            540      2.00      923            850     33.0  AA        1141 N619AA  JFK    MIA      160       1089  5.00   40.0
 4  2013     1     1      544            545     -1.00     1004           1022    -18.0  B6         725 N804JB  JFK    BQN      183       1576  5.00   45.0
 5  2013     1     1      554            600     -6.00      812            837    -25.0  DL         461 N668DN  LGA    ATL      116        762  6.00    0  
 6  2013     1     1      554            558     -4.00      740            728     12.0  UA        1696 N39463  EWR    ORD      150        719  5.00   58.0
 7  2013     1     1      555            600     -5.00      913            854     19.0  B6         507 N516JB  EWR    FLL      158       1065  6.00    0  
 8  2013     1     1      557            600     -3.00      709            723    -14.0  EV        5708 N829AS  LGA    IAD       53.0      229  6.00    0  
 9  2013     1     1      557            600     -3.00      838            846    - 8.00 B6          79 N593JB  JFK    MCO      140        944  6.00    0  
10  2013     1     1      558            600     -2.00      753            745      8.00 AA         301 N3ALAA  LGA    ORD      138        733  6.00    0  
# ... with 26,994 more rows, and 1 more variable: time_hour <dttm>
> # filter data for Nov and Dec
> flights %>% filter(month==11 | month == 12)
# A tibble: 55,403 x 19
    year month   day dep_time sched_dep_time dep_delay arr_time sched_arr_time arr_delay carrier flight tailnum origin dest  air_time distance  hour minute
   <int> <int> <int>    <int>          <int>     <dbl>    <int>          <int>     <dbl> <chr>    <int> <chr>   <chr>  <chr>    <dbl>    <dbl> <dbl>  <dbl>
 1  2013    11     1        5           2359      6.00      352            345      7.00 B6         745 N568JB  JFK    PSE      205       1617 23.0    59.0
 2  2013    11     1       35           2250    105         123           2356     87.0  B6        1816 N353JB  JFK    SYR       36.0      209 22.0    50.0
 3  2013    11     1      455            500   -  5.00      641            651    -10.0  US        1895 N192UW  EWR    CLT       88.0      529  5.00    0  
 4  2013    11     1      539            545   -  6.00      856            827     29.0  UA        1714 N38727  LGA    IAH      229       1416  5.00   45.0
 5  2013    11     1      542            545   -  3.00      831            855    -24.0  AA        2243 N5CLAA  JFK    MIA      147       1089  5.00   45.0
 6  2013    11     1      549            600   - 11.0       912            923    -11.0  UA         303 N595UA  JFK    SFO      359       2586  6.00    0  
 7  2013    11     1      550            600   - 10.0       705            659      6.00 US        2167 N748UW  LGA    DCA       57.0      214  6.00    0  
 8  2013    11     1      554            600   -  6.00      659            701    - 2.00 US        2134 N742PS  LGA    BOS       40.0      184  6.00    0  
 9  2013    11     1      554            600   -  6.00      826            827    - 1.00 DL         563 N912DE  LGA    ATL      126        762  6.00    0  
10  2013    11     1      554            600   -  6.00      749            751    - 2.00 DL         731 N315NB  LGA    DTW       93.0      502  6.00    0  
# ... with 55,393 more rows, and 1 more variable: time_hour <dttm>
> flights %>% filter(month %in% c(11,12))
# A tibble: 55,403 x 19
    year month   day dep_time sched_dep_time dep_delay arr_time sched_arr_time arr_delay carrier flight tailnum origin dest  air_time distance  hour minute
   <int> <int> <int>    <int>          <int>     <dbl>    <int>          <int>     <dbl> <chr>    <int> <chr>   <chr>  <chr>    <dbl>    <dbl> <dbl>  <dbl>
 1  2013    11     1        5           2359      6.00      352            345      7.00 B6         745 N568JB  JFK    PSE      205       1617 23.0    59.0
 2  2013    11     1       35           2250    105         123           2356     87.0  B6        1816 N353JB  JFK    SYR       36.0      209 22.0    50.0
 3  2013    11     1      455            500   -  5.00      641            651    -10.0  US        1895 N192UW  EWR    CLT       88.0      529  5.00    0  
 4  2013    11     1      539            545   -  6.00      856            827     29.0  UA        1714 N38727  LGA    IAH      229       1416  5.00   45.0
 5  2013    11     1      542            545   -  3.00      831            855    -24.0  AA        2243 N5CLAA  JFK    MIA      147       1089  5.00   45.0
 6  2013    11     1      549            600   - 11.0       912            923    -11.0  UA         303 N595UA  JFK    SFO      359       2586  6.00    0  
 7  2013    11     1      550            600   - 10.0       705            659      6.00 US        2167 N748UW  LGA    DCA       57.0      214  6.00    0  
 8  2013    11     1      554            600   -  6.00      659            701    - 2.00 US        2134 N742PS  LGA    BOS       40.0      184  6.00    0  
 9  2013    11     1      554            600   -  6.00      826            827    - 1.00 DL         563 N912DE  LGA    ATL      126        762  6.00    0  
10  2013    11     1      554            600   -  6.00      749            751    - 2.00 DL         731 N315NB  LGA    DTW       93.0      502  6.00    0  
# ... with 55,393 more rows, and 1 more variable: time_hour <dttm>
…
 $ arr_time      : int  830 850 923 1004 812 740 913 709 838 753 ...
 $ sched_arr_time: int  819 830 850 1022 837 728 854 723 846 745 ...
 $ arr_delay     : num  11 20 33 -18 -25 12 19 -14 -8 8 ...
 $ carrier       : chr  "UA" "UA" "AA" "B6" ...
 $ flight        : int  1545 1714 1141 725 461 1696 507 5708 79 301 ...
 $ tailnum       : chr  "N14228" "N24211" "N619AA" "N804JB" ...
 $ origin        : chr  "EWR" "LGA" "JFK" "JFK" ...
 $ dest          : chr  "IAH" "IAH" "MIA" "BQN" ...
 $ air_time      : num  227 227 160 183 116 150 158 53 140 138 ...
 $ distance      : num  1400 1416 1089 1576 762 ...
 $ hour          : num  5 5 5 5 6 5 6 6 6 6 ...
 $ minute        : num  15 29 40 45 0 58 0 0 0 0 ...
 $ time_hour     : POSIXct, format: "2013-01-01 05:00:00" "2013-01-01 05:00:00" "2013-01-01 05:00:00" "2013-01-01 05:00:00" ...
> flights %>% filter(dep_delay < 120 & arr_delay < 120) %>% select(arr_delay, dep_delay, everything())
# A tibble: 315,868 x 19
   arr_delay dep_delay  year month   day dep_time sched_dep_time arr_time sched_arr_time carrier flight tailnum origin dest  air_time distance  hour minute
       <dbl>     <dbl> <int> <int> <int>    <int>          <int>    <int>          <int> <chr>    <int> <chr>   <chr>  <chr>    <dbl>    <dbl> <dbl>  <dbl>
 1     11.0       2.00  2013     1     1      517            515      830            819 UA        1545 N14228  EWR    IAH      227       1400  5.00   15.0
 2     20.0       4.00  2013     1     1      533            529      850            830 UA        1714 N24211  LGA    IAH      227       1416  5.00   29.0
 3     33.0       2.00  2013     1     1      542            540      923            850 AA        1141 N619AA  JFK    MIA      160       1089  5.00   40.0
 4    -18.0      -1.00  2013     1     1      544            545     1004           1022 B6         725 N804JB  JFK    BQN      183       1576  5.00   45.0
 5    -25.0      -6.00  2013     1     1      554            600      812            837 DL         461 N668DN  LGA    ATL      116        762  6.00    0  
 6     12.0      -4.00  2013     1     1      554            558      740            728 UA        1696 N39463  EWR    ORD      150        719  5.00   58.0
 7     19.0      -5.00  2013     1     1      555            600      913            854 B6         507 N516JB  EWR    FLL      158       1065  6.00    0  
 8    -14.0      -3.00  2013     1     1      557            600      709            723 EV        5708 N829AS  LGA    IAD       53.0      229  6.00    0  
 9    - 8.00     -3.00  2013     1     1      557            600      838            846 B6          79 N593JB  JFK    MCO      140        944  6.00    0  
10      8.00     -2.00  2013     1     1      558            600      753            745 AA         301 N3ALAA  LGA    ORD      138        733  6.00    0  
# ... with 315,858 more rows, and 1 more variable: time_hour <dttm>
> # show the makeup time
> flights %>% mutate(makeuptime = dep_delay - arr_delay) %>% select(makeuptime, everything())
# A tibble: 336,776 x 20
   makeuptime  year month   day dep_time sched_dep_time dep_delay arr_time sched_arr_time arr_delay carrier flight tailnum origin dest  air_time distance  hour
        <dbl> <int> <int> <int>    <int>          <int>     <dbl>    <int>          <int>     <dbl> <chr>    <int> <chr>   <chr>  <chr>    <dbl>    <dbl> <dbl>
 1     - 9.00  2013     1     1      517            515      2.00      830            819     11.0  UA        1545 N14228  EWR    IAH      227       1400  5.00
 2     -16.0   2013     1     1      533            529      4.00      850            830     20.0  UA        1714 N24211  LGA    IAH      227       1416  5.00
 3     -31.0   2013     1     1      542            540      2.00      923            850     33.0  AA        1141 N619AA  JFK    MIA      160       1089  5.00
 4      17.0   2013     1     1      544            545     -1.00     1004           1022    -18.0  B6         725 N804JB  JFK    BQN      183       1576  5.00
 5      19.0   2013     1     1      554            600     -6.00      812            837    -25.0  DL         461 N668DN  LGA    ATL      116        762  6.00
 6     -16.0   2013     1     1      554            558     -4.00      740            728     12.0  UA        1696 N39463  EWR    ORD      150        719  5.00
 7     -24.0   2013     1     1      555            600     -5.00      913            854     19.0  B6         507 N516JB  EWR    FLL      158       1065  6.00
 8      11.0   2013     1     1      557            600     -3.00      709            723    -14.0  EV        5708 N829AS  LGA    IAD       53.0      229  6.00
 9       5.00  2013     1     1      557            600     -3.00      838            846    - 8.00 B6          79 N593JB  JFK    MCO      140        944  6.00
10     -10.0   2013     1     1      558            600     -2.00      753            745      8.00 AA         301 N3ALAA  LGA    ORD      138        733  6.00  
# ... with 336,766 more rows, and 2 more variables: minute <dbl>, time_hour <dttm>
…
# A tibble: 8 x 3
# Groups:   gear [?]
   gear   cyl mean1
  <dbl> <dbl> <dbl>
1  3.00  4.00  21.5  
2  3.00  6.00  19.8  
3  3.00  8.00  15.0  
4  4.00  4.00  26.9  
5  4.00  6.00  19.8  
6  5.00  4.00  28.2  
7  5.00  6.00  19.7  
8  5.00  8.00  15.4  
> # add a new column that lists mpg + displacement
> mtcars %>% group_by(gear, cyl) %>% mutate(newcol = mpg + disp)
# A tibble: 32 x 12
# Groups:   gear, cyl [8]
     mpg   cyl  disp    hp  drat    wt  qsec    vs    am  gear  carb newcol
   <dbl> <dbl> <dbl> <dbl> <dbl> <dbl> <dbl> <dbl> <dbl> <dbl> <dbl>  <dbl>
 1  21.0  6.00   160 110    3.90  2.62  16.5  0     1.00  4.00  4.00    181
 2  21.0  6.00   160 110    3.90  2.88  17.0  0     1.00  4.00  4.00    181
 3  22.8  4.00   108  93.0  3.85  2.32  18.6  1.00  1.00  4.00  1.00    131
 4  21.4  6.00   258 110    3.08  3.22  19.4  1.00  0     3.00  1.00    279
 5  18.7  8.00   360 175    3.15  3.44  17.0  0     0     3.00  2.00    379
 6  18.1  6.00   225 105    2.76  3.46  20.2  1.00  0     3.00  1.00    243
 7  14.3  8.00   360 245    3.21  3.57  15.8  0     0     3.00  4.00    374
 8  24.4  4.00   147  62.0  3.69  3.19  20.0  1.00  0     4.00  2.00    171
 9  22.8  4.00   141  95.0  3.92  3.15  22.9  1.00  0     4.00  2.00    164
10  19.2  6.00   168 123    3.92  3.44  18.3  1.00  0     4.00  4.00    187  
# ... with 22 more rows
…
